{
  "images" : [
    {
      "filename" : "new_note_32_32.png",
      "idiom" : "universal",
      "scale" : "1x"
    },
    {
      "filename" : "new_note_64_64.png",
      "idiom" : "universal",
      "scale" : "2x"
    },
    {
      "filename" : "new_note_96_96.png",
      "idiom" : "universal",
      "scale" : "3x"
    }
  ],
  "info" : {
    "author" : "xcode",
    "version" : 1
  }
}
